Project 1: Exploratory Data Analysis
…
finaldata1 <- finaldata %>% group_by(state, Program) %>% mutate(Sum.State.Share = sum(State.Share)) %>% 
    ungroup
finaldata1 %>% group_by(state) %>% select(-starts_with("Federal.Share.")) %>% 
    summarize_if(is.numeric, list(mean = mean))

## # A tibble: 51 x 17
##    state median_house_in… share_unemp_sea… share_pop_metro… share_pop_hs_me…
##    <chr>            <dbl>            <dbl>            <dbl>            <dbl>
##  1 Alab…            42278            0.06              0.64            0.821
##  2 Alas…            67629            0.064             0.63            0.914
##  3 Ariz…            49254            0.063             0.9             0.842
##  4 Arka…            44922            0.052             0.69            0.824
##  5 Cali…            60487            0.059             0.97            0.806
##  6 Colo…            60940            0.04              0.8             0.893
##  7 Conn…            70161            0.052             0.94            0.886
##  8 Dela…            57522            0.049             0.9             0.874
##  9 Dist…            68277            0.067             1               0.871
## 10 Flor…            46140            0.052             0.96            0.853
## # … with 41 more rows, and 12 more variables: share_non_citizen_mean <dbl>,
## #   share_white_poverty_mean <dbl>, gini_index_mean <dbl>,
## #   share_non_white_mean <dbl>, share_vote_trump_mean <dbl>,
## #   hate_crimes_per_100k_splc_mean <dbl>,
## #   avg_hatecrimes_per_100k_fbi_mean <dbl>, Total.Computable_mean <dbl>,
## #   Federal.Share_mean <dbl>, State.Share_mean <dbl>, Year_mean <dbl>,
## #   Sum.State.Share_mean <dbl>
…
finaldata2 <- finaldata1 %>% filter(Program == "Medical Assistance Program") %>% 
    group_by(state) %>% summarize_if(is.numeric, list(mean = mean))
summarytable <- finaldata2 %>% arrange(desc(State.Share_mean))
print(summarytable)

## # A tibble: 51 x 20
##    state median_house_in… share_unemp_sea… share_pop_metro… share_pop_hs_me…
##    <chr>            <dbl>            <dbl>            <dbl>            <dbl>
##  1 Cali…            60487            0.059             0.97            0.806
##  2 New …            54310            0.051             0.94            0.847
##  3 Texas            53875            0.042             0.92            0.799
##  4 Penn…            55173            0.053             0.87            0.879
##  5 Flor…            46140            0.052             0.96            0.853
##  6 Mass…            63151            0.046             0.97            0.89 
##  7 Illi…            54916            0.054             0.9             0.864
##  8 Ohio             49644            0.045             0.75            0.876
##  9 New …            65243            0.056             1               0.874
## 10 Minn…            67244            0.038             0.75            0.915
## # … with 41 more rows, and 15 more variables: share_non_citizen_mean <dbl>,
## #   share_white_poverty_mean <dbl>, gini_index_mean <dbl>,
## #   share_non_white_mean <dbl>, share_vote_trump_mean <dbl>,
## #   hate_crimes_per_100k_splc_mean <dbl>,
## #   avg_hatecrimes_per_100k_fbi_mean <dbl>, Total.Computable_mean <dbl>,
## #   Federal.Share_mean <dbl>, Federal.Share.Medicaid_mean <dbl>,
## #   Federal.Share.ARRA_mean <dbl>, Federal.Share.BIPP_mean <dbl>,
## #   State.Share_mean <dbl>, Year_mean <dbl>, Sum.State.Share_mean <dbl>

The mean, standard deviation, maximum value, minimum value and distinct values for every numeric variable for states was calculated using summarize_if(). The total state share of health expenses for each state was calculated using the “mutate” function and “sum” function within that for the “State.Share” values grouped by state and program. After grouping by state and unselecting the types of federal expenditure (since many were NA and thus irrelevant), the mean of all variables were calculated. The same was then done, but this time grouped just by program. Finally, to analyze statistics just for the medical assistance programs in states, this category was used as a filter to then calculate the means for all numeric variables. The summary table was then arranged by descending total state share health expenditures to look at which states spent the most on healthcare. California was the biggest state spender on health expenditure, with a sum of $91919159345 spent.

Visualization

cormat <- finaldata1 %>% select_if(is.numeric) %>% cor(use = "pair")
tidycor <- cormat %>% as.data.frame %>% rownames_to_column("var1") %>% 
    pivot_longer(-1, names_to = "var2", values_to = "correlation")
arrange(tidycor, desc(correlation))

## # A tibble: 361 x 3
##    var1                      var2                      correlation
##    <chr>                     <chr>                           <dbl>
##  1 median_house_inc          median_house_inc                    1
##  2 share_unemp_seas          share_unemp_seas                    1
##  3 share_pop_metro           share_pop_metro                     1
##  4 share_pop_hs              share_pop_hs                        1
##  5 share_non_citizen         share_non_citizen                   1
##  6 share_white_poverty       share_white_poverty                 1
##  7 gini_index                gini_index                          1
##  8 share_non_white           share_non_white                     1
##  9 share_vote_trump          share_vote_trump                    1
## 10 hate_crimes_per_100k_splc hate_crimes_per_100k_splc           1
## # … with 351 more rows
…
